9-21.utf8
…
## The following objects are masked from 'package:base':
## 
##     intersect, setdiff, setequal, union

library(tidyr)
library(ggplot2)

#Joining Tables

constructors

## # A tibble: 211 x 5
##    constructorId constructorRef name     nationality url                        
##            <dbl> <chr>          <chr>    <chr>       <chr>                      
##  1             1 mclaren        McLaren  British     http://en.wikipedia.org/wi
##  2             2 bmw_sauber     BMW Sau German      http://en.wikipedia.org/wi
##  3             3 williams       Williams British     http://en.wikipedia.org/wi
##  4             4 renault        Renault  French      http://en.wikipedia.org/wi
##  5             5 toro_rosso     Toro Ro Italian     http://en.wikipedia.org/wi
##  6             6 ferrari        Ferrari  Italian     http://en.wikipedia.org/wi
##  7             7 toyota         Toyota   Japanese    http://en.wikipedia.org/wi
##  8             8 super_aguri    Super A Japanese    http://en.wikipedia.org/wi
##  9             9 red_bull       Red Bull Austrian    http://en.wikipedia.org/wi
## 10            10 force_india    Force I Indian      http://en.wikipedia.org/wi
## #  with 201 more rows

results

## # A tibble: 25,220 x 18
##    resultId raceId driverId constructorId number  grid position positionText
##       <dbl>  <dbl>    <dbl>         <dbl>  <dbl> <dbl> <chr>    <chr>       
##  1        1     18        1             1     22     1 "1"      1           
##  2        2     18        2             2      3     5 "2"      2           
##  3        3     18        3             3      7     7 "3"      3           
##  4        4     18        4             4      5    11 "4"      4           
##  5        5     18        5             1     23     3 "5"      5           
##  6        6     18        6             3      8    13 "6"      6           
##  7        7     18        7             5     14    17 "7"      7           
##  8        8     18        8             6      1    15 "8"      8           
##  9        9     18        9             2      4     2 "\\N"    R           
## 10       10     18       10             7     12    18 "\\N"    R           
## #  with 25,210 more rows, and 10 more variables: positionOrder <dbl>,
## #   points <dbl>, laps <dbl>, time <chr>, milliseconds <chr>, fastestLap <chr>,
## #   rank <chr>, fastestLapTime <chr>, fastestLapSpeed <chr>, statusId <dbl>

pit_stops

## # A tibble: 8,496 x 7
##    raceId driverId  stop   lap time     duration milliseconds
##     <dbl>    <dbl> <dbl> <dbl> <time>   <chr>           <dbl>
##  1    841      153     1     1 17:05:23 26.898          26898
##  2    841       30     1     1 17:05:52 25.021          25021
##  3    841       17     1    11 17:20:48 23.426          23426
##  4    841        4     1    12 17:22:34 23.251          23251
##  5    841       13     1    13 17:24:10 23.842          23842
##  6    841       22     1    13 17:24:29 23.643          23643
##  7    841       20     1    14 17:25:17 22.603          22603
##  8    841      814     1    14 17:26:03 24.863          24863
##  9    841      816     1    14 17:26:50 25.259          25259
## 10    841       67     1    15 17:27:34 25.342          25342
## #  with 8,486 more rows

races

## # A tibble: 1,058 x 8
##    raceId  year round circuitId name       date       time   url                
##     <dbl> <dbl> <dbl>     <dbl> <chr>      <date>     <chr>  <chr>              
##  1      1  2009     1         1 Australia 2009-03-29 06:00 http://en.wikipedi
##  2      2  2009     2         2 Malaysian 2009-04-05 09:00 http://en.wikipedi
##  3      3  2009     3        17 Chinese G 2009-04-19 07:00 http://en.wikipedi
##  4      4  2009     4         3 Bahrain G 2009-04-26 12:00 http://en.wikipedi
##  5      5  2009     5         4 Spanish G 2009-05-10 12:00 http://en.wikipedi
##  6      6  2009     6         6 Monaco Gr 2009-05-24 12:00 http://en.wikipedi
##  7      7  2009     7         5 Turkish G 2009-06-07 12:00 http://en.wikipedi
##  8      8  2009     8         9 British G 2009-06-21 12:00 http://en.wikipedi
##  9      9  2009     9        20 German Gr 2009-07-12 12:00 http://en.wikipedi
## 10     10  2009    10        11 Hungarian 2009-07-26 12:00 http://en.wikipedi
## #  with 1,048 more rows

circuits

## # A tibble: 77 x 9
##    circuitId circuitRef  name     location country    lat    lng   alt url      
##        <dbl> <chr>       <chr>    <chr>    <chr>    <dbl>  <dbl> <dbl> <chr>    
##  1         1 albert_park Albert  Melbour Austra -37.8  145.      10 http://e
##  2         2 sepang      Sepang  Kuala L Malays   2.76 102.      18 http://e
##  3         3 bahrain     Bahrain Sakhir   Bahrain  26.0   50.5      7 http://e
##  4         4 catalunya   Circuit Montmel Spain    41.6    2.26   109 http://e
##  5         5 istanbul    Istanbu Istanbul Turkey   41.0   29.4    130 http://e
##  6         6 monaco      Circuit Monte-C Monaco   43.7    7.42     7 http://e
##  7         7 villeneuve  Circuit Montreal Canada   45.5  -73.5     13 http://e
##  8         8 magny_cours Circuit Magny C France   46.9    3.16   228 http://e
##  9         9 silverstone Silvers Silvers UK       52.1   -1.02   153 http://e
## 10        10 hockenheim Hockenh Hockenh Germany  49.3    8.57   103 http://e
## #  with 67 more rows

results_pits = pit_stops %>%
  left_join(results, by = c("raceId", "driverId"), suffix = c("_pit", "_result")) %>%
  left_join(constructors, by = "constructorId") %>%
  left_join(races, by = "raceId") %>%
  left_join(circuits, by = "circuitId") %>%
  select(raceId, driverId, stop, lap, duration, milliseconds_pit, resultId, constructorId, positionOrder, name.x, circuitRef, year)

results_pits

## # A tibble: 8,496 x 12
##    raceId driverId  stop   lap duration milliseconds_pit resultId constructorId
##     <dbl>    <dbl> <dbl> <dbl> <chr>               <dbl>    <dbl>         <dbl>
##  1    841      153     1     1 26.898              26898    20789             5
##  2    841       30     1     1 25.021              25021    20797           131
##  3    841       17     1    11 23.426              23426    20783             9
##  4    841        4     1    12 23.251              23251    20782             6
##  5    841       13     1    13 23.842              23842    20785             6
##  6    841       22     1    13 23.643              23643    20794             3
##  7    841       20     1    14 22.603              22603    20779             9
##  8    841      814     1    14 24.863              24863    20788            10
##  9    841      816     1    14 25.259              25259    20792           166
## 10    841       67     1    15 25.342              25342    20786             5
## #  with 8,486 more rows, and 4 more variables: positionOrder <dbl>,
## #   name.x <chr>, circuitRef <chr>, year <dbl>
…
results_pits_plot = results_pits %>%
  filter(year > 2011, year < 2021) %>%
  group_by(raceId, driverId) %>%
  mutate(avg_pit = mean(milliseconds_pit)) %>%
  filter(circuit_name == "silverstone") %>%
  filter(constructor_name %in% c("Mercedes", "Ferrari", "Red Bull", "Williams", "McLaren", "Toro Rosso")) %>%
  filter(avg_pit < 40000)

results_pits_plot

## # A tibble: 198 x 13
## # Groups:   raceId, driverId [109]
##    raceId driverId  stop   lap pit_stop_duration milliseconds_pit resultId
##     <dbl>    <dbl> <dbl> <dbl> <chr>                        <dbl>    <dbl>
##  1    868       17     2    33 25.179                       25179    21424
##  2    868      813     2    12 33.068                       33068    21439
##  3    868       13     1    13 25.325                       25325    21427
##  4    868       17     1    14 25.854                       25854    21424
##  5    868      811     1    14 25.983                       25983    21432
##  6    868      818     1    14 26.489                       26489    21437
##  7    868        4     1    15 25.372                       25372    21425
##  8    868        3     1    15 25.189                       25189    21438
##  9    868       18     1    16 25.138                       25138    21433
## 10    868      817     1    16 25.626                       25626    21436
## #  with 188 more rows, and 6 more variables: constructorId <dbl>,
## #   finish <dbl>, constructor_name <chr>, circuit_name <chr>, year <dbl>,
## #   avg_pit <dbl>
…
